…
All of these functions work similarly: 1. The first argument is a data frame 2. The subsequent arguments describe what to do with the data frame, using the variable names (without quotes) 3. The result is a new dataframe

5.2 Filter rows with filter()
-----------------------------

The filter function allows me to subset observations based on their values.

For example, we can select all flights on January 1st with:

``` r
filter(flights, month == 1, day == 1)
```

    ## # A tibble: 842 x 19
    ##     year month   day dep_time sched_dep_time dep_delay arr_time
    ##    <int> <int> <int>    <int>          <int>     <dbl>    <int>
    ##  1  2013     1     1      517            515         2      830
    ##  2  2013     1     1      533            529         4      850
    ##  3  2013     1     1      542            540         2      923
    ##  4  2013     1     1      544            545        -1     1004
    ##  5  2013     1     1      554            600        -6      812
    ##  6  2013     1     1      554            558        -4      740
    ##  7  2013     1     1      555            600        -5      913
    ##  8  2013     1     1      557            600        -3      709
    ##  9  2013     1     1      557            600        -3      838
    ## 10  2013     1     1      558            600        -2      753
    ## # ... with 832 more rows, and 12 more variables: sched_arr_time <int>,
    ## #   arr_delay <dbl>, carrier <chr>, flight <int>, tailnum <chr>,
    ## #   origin <chr>, dest <chr>, air_time <dbl>, distance <dbl>, hour <dbl>,
    ## #   minute <dbl>, time_hour <dttm>
…
You need to use == in order to run this code correctly, not just =

### 5.2.2 Logical Operators

Many arguments with filter are combined with and or or. You can use boolean operators for this
&gt;& is “and”, | is “or”, and ! is “not”

This code finds all the flights that departed in November OR December

``` r
filter(flights, month == 11 | month == 12)
```

    ## # A tibble: 55,403 x 19
    ##     year month   day dep_time sched_dep_time dep_delay arr_time
    ##    <int> <int> <int>    <int>          <int>     <dbl>    <int>
    ##  1  2013    11     1        5           2359         6      352
    ##  2  2013    11     1       35           2250       105      123
    ##  3  2013    11     1      455            500        -5      641
    ##  4  2013    11     1      539            545        -6      856
    ##  5  2013    11     1      542            545        -3      831
    ##  6  2013    11     1      549            600       -11      912
    ##  7  2013    11     1      550            600       -10      705
    ##  8  2013    11     1      554            600        -6      659
    ##  9  2013    11     1      554            600        -6      826
    ## 10  2013    11     1      554            600        -6      749
    ## # ... with 55,393 more rows, and 12 more variables: sched_arr_time <int>,
    ## #   arr_delay <dbl>, carrier <chr>, flight <int>, tailnum <chr>,
    ## #   origin <chr>, dest <chr>, air_time <dbl>, distance <dbl>, hour <dbl>,
    ## #   minute <dbl>, time_hour <dttm>
…
1.  Find all flights that
    &gt;Had an arrival delay of two or more hours
    &gt;Flew to Houston (IAH or HOU)
    &gt;Were operated by United, American, or Delta
    &gt;Departed in summer (July, August, and September)
    &gt;Arrived more than two hours late, but didn’t leave late
    &gt;Were delayed by at least an hour, but made up over 30 minutes in flight
    &gt;Departed between midnight and 6am (inclusive)

``` r
filter(flights, dep_delay >= 2)
```

    ## # A tibble: 120,382 x 19
    ##     year month   day dep_time sched_dep_time dep_delay arr_time
    ##    <int> <int> <int>    <int>          <int>     <dbl>    <int>
    ##  1  2013     1     1      517            515         2      830
    ##  2  2013     1     1      533            529         4      850
    ##  3  2013     1     1      542            540         2      923
    ##  4  2013     1     1      608            600         8      807
    ##  5  2013     1     1      611            600        11      945
    ##  6  2013     1     1      613            610         3      925
    ##  7  2013     1     1      623            610        13      920
    ##  8  2013     1     1      632            608        24      740
    ##  9  2013     1     1      644            636         8      931
    ## 10  2013     1     1      702            700         2     1058
    ## # ... with 120,372 more rows, and 12 more variables: sched_arr_time <int>,
    ## #   arr_delay <dbl>, carrier <chr>, flight <int>, tailnum <chr>,
    ## #   origin <chr>, dest <chr>, air_time <dbl>, distance <dbl>, hour <dbl>,
    ## #   minute <dbl>, time_hour <dttm>

``` r
filter(flights, dest == "IAH" | dest == "HOU")
```

    ## # A tibble: 9,313 x 19
    ##     year month   day dep_time sched_dep_time dep_delay arr_time
    ##    <int> <int> <int>    <int>          <int>     <dbl>    <int>
    ##  1  2013     1     1      517            515         2      830
    ##  2  2013     1     1      533            529         4      850
    ##  3  2013     1     1      623            627        -4      933
    ##  4  2013     1     1      728            732        -4     1041
    ##  5  2013     1     1      739            739         0     1104
    ##  6  2013     1     1      908            908         0     1228
    ##  7  2013     1     1     1028           1026         2     1350
    ##  8  2013     1     1     1044           1045        -1     1352
    ##  9  2013     1     1     1114            900       134     1447
    ## 10  2013     1     1     1205           1200         5     1503
    ## # ... with 9,303 more rows, and 12 more variables: sched_arr_time <int>,
    ## #   arr_delay <dbl>, carrier <chr>, flight <int>, tailnum <chr>,
    ## #   origin <chr>, dest <chr>, air_time <dbl>, distance <dbl>, hour <dbl>,
    ## #   minute <dbl>, time_hour <dttm>

``` r
filter(flights, carrier == "UA" | carrier == "AA" | carrier == "DL")
```

    ## # A tibble: 139,504 x 19
    ##     year month   day dep_time sched_dep_time dep_delay arr_time
    ##    <int> <int> <int>    <int>          <int>     <dbl>    <int>
    ##  1  2013     1     1      517            515         2      830
    ##  2  2013     1     1      533            529         4      850
    ##  3  2013     1     1      542            540         2      923
    ##  4  2013     1     1      554            600        -6      812
    ##  5  2013     1     1      554            558        -4      740
    ##  6  2013     1     1      558            600        -2      753
    ##  7  2013     1     1      558            600        -2      924
    ##  8  2013     1     1      558            600        -2      923
    ##  9  2013     1     1      559            600        -1      941
    ## 10  2013     1     1      559            600        -1      854
    ## # ... with 139,494 more rows, and 12 more variables: sched_arr_time <int>,
    ## #   arr_delay <dbl>, carrier <chr>, flight <int>, tailnum <chr>,
    ## #   origin <chr>, dest <chr>, air_time <dbl>, distance <dbl>, hour <dbl>,
    ## #   minute <dbl>, time_hour <dttm>

``` r
filter(flights, month == 7 | month == 8 | month == 9)
```

    ## # A tibble: 86,326 x 19
    ##     year month   day dep_time sched_dep_time dep_delay arr_time
    ##    <int> <int> <int>    <int>          <int>     <dbl>    <int>
    ##  1  2013     7     1        1           2029       212      236
    ##  2  2013     7     1        2           2359         3      344
    ##  3  2013     7     1       29           2245       104      151
    ##  4  2013     7     1       43           2130       193      322
    ##  5  2013     7     1       44           2150       174      300
    ##  6  2013     7     1       46           2051       235      304
    ##  7  2013     7     1       48           2001       287      308
    ##  8  2013     7     1       58           2155       183      335
    ##  9  2013     7     1      100           2146       194      327
    ## 10  2013     7     1      100           2245       135      337
    ## # ... with 86,316 more rows, and 12 more variables: sched_arr_time <int>,
    ## #   arr_delay <dbl>, carrier <chr>, flight <int>, tailnum <chr>,
    ## #   origin <chr>, dest <chr>, air_time <dbl>, distance <dbl>, hour <dbl>,
    ## #   minute <dbl>, time_hour <dttm>

``` r
filter(flights, dep_delay <= 0 & arr_delay > 120)
```

    ## # A tibble: 29 x 19
    ##     year month   day dep_time sched_dep_time dep_delay arr_time
    ##    <int> <int> <int>    <int>          <int>     <dbl>    <int>
    ##  1  2013     1    27     1419           1420        -1     1754
    ##  2  2013    10     7     1350           1350         0     1736
    ##  3  2013    10     7     1357           1359        -2     1858
    ##  4  2013    10    16      657            700        -3     1258
    ##  5  2013    11     1      658            700        -2     1329
    ##  6  2013     3    18     1844           1847        -3       39
    ##  7  2013     4    17     1635           1640        -5     2049
    ##  8  2013     4    18      558            600        -2     1149
    ##  9  2013     4    18      655            700        -5     1213
    ## 10  2013     5    22     1827           1830        -3     2217
    ## # ... with 19 more rows, and 12 more variables: sched_arr_time <int>,
    ## #   arr_delay <dbl>, carrier <chr>, flight <int>, tailnum <chr>,
    ## #   origin <chr>, dest <chr>, air_time <dbl>, distance <dbl>, hour <dbl>,
    ## #   minute <dbl>, time_hour <dttm>

``` r
filter(flights, dep_delay <= 60 & arr_delay > 30)
```

    ## # A tibble: 25,381 x 19
    ##     year month   day dep_time sched_dep_time dep_delay arr_time
    ##    <int> <int> <int>    <int>          <int>     <dbl>    <int>
    ##  1  2013     1     1      542            540         2      923
    ##  2  2013     1     1      559            600        -1      941
    ##  3  2013     1     1      608            600         8      807
    ##  4  2013     1     1      635            635         0     1028
    ##  5  2013     1     1      702            700         2     1058
    ##  6  2013     1     1      724            730        -6     1111
    ##  7  2013     1     1      749            710        39      939
    ##  8  2013     1     1      754            755        -1     1103
    ##  9  2013     1     1      833            835        -2     1134
    ## 10  2013     1     1      903            820        43     1045
    ## # ... with 25,371 more rows, and 12 more variables: sched_arr_time <int>,
    ## #   arr_delay <dbl>, carrier <chr>, flight <int>, tailnum <chr>,
    ## #   origin <chr>, dest <chr>, air_time <dbl>, distance <dbl>, hour <dbl>,
    ## #   minute <dbl>, time_hour <dttm>

``` r
filter(flights, dep_time %in% c(2400,600))
```

    ## # A tibble: 643 x 19
    ##     year month   day dep_time sched_dep_time dep_delay arr_time
    ##    <int> <int> <int>    <int>          <int>     <dbl>    <int>
    ##  1  2013     1     1      600            600         0      851
    ##  2  2013     1     1      600            600         0      837
    ##  3  2013     1     2      600            600         0      814
    ##  4  2013     1     2      600            605        -5      751
    ##  5  2013     1     2      600            600         0      819
    ##  6  2013     1     2      600            600         0      846
    ##  7  2013     1     2      600            600         0      737
    ##  8  2013     1     2      600            605        -5      748
    ##  9  2013     1     2      600            600         0      747
    ## 10  2013     1     3      600            600         0      726
    ## # ... with 633 more rows, and 12 more variables: sched_arr_time <int>,
    ## #   arr_delay <dbl>, carrier <chr>, flight <int>, tailnum <chr>,
    ## #   origin <chr>, dest <chr>, air_time <dbl>, distance <dbl>, hour <dbl>,
    ## #   minute <dbl>, time_hour <dttm>
…
> 8255 flights has missing `dept_time`, 8255 have missing `dep_delay`, 8713 have missing `arr_time`, and 9430 have missing `air_time`. These might be flights that got cancelled or weren't recorded correctly.

4.Why is NA ^ 0 not missing? Why is NA | TRUE not missing? Why is FALSE & NA not missing? Can you figure out the general rule? (NA \* 0 is a tricky counterexample!) &gt; NA ^ 0 makes it to the power of zero, which equals 1, so it doesn't help us find the original value. NA | TRUE , is saying NA or TRUE. FALSE & NA is calling for a variable that is FALSE and NA.

5.3 Arrange rows with arrange()
-------------------------------

This function changes the order of rows. It takes a data frame and a set of column names to order by.

``` r
arrange(flights, desc(dep_delay)) #re-orders a column by descening order
```

    ## # A tibble: 336,776 x 19
    ##     year month   day dep_time sched_dep_time dep_delay arr_time
    ##    <int> <int> <int>    <int>          <int>     <dbl>    <int>
    ##  1  2013     1     9      641            900      1301     1242
    ##  2  2013     6    15     1432           1935      1137     1607
    ##  3  2013     1    10     1121           1635      1126     1239
    ##  4  2013     9    20     1139           1845      1014     1457
    ##  5  2013     7    22      845           1600      1005     1044
    ##  6  2013     4    10     1100           1900       960     1342
    ##  7  2013     3    17     2321            810       911      135
    ##  8  2013     6    27      959           1900       899     1236
    ##  9  2013     7    22     2257            759       898      121
    ## 10  2013    12     5      756           1700       896     1058
    ## # ... with 336,766 more rows, and 12 more variables: sched_arr_time <int>,
    ## #   arr_delay <dbl>, carrier <chr>, flight <int>, tailnum <chr>,
    ## #   origin <chr>, dest <chr>, air_time <dbl>, distance <dbl>, hour <dbl>,
    ## #   minute <dbl>, time_hour <dttm>

### 5.3.1 Exercises

1.  How could you use arrange() to sort all missing values to the start? (Hint: use is.na()).

``` r
arrange(flights, desc(is.na(air_time)))
```

    ## # A tibble: 336,776 x 19
    ##     year month   day dep_time sched_dep_time dep_delay arr_time
    ##    <int> <int> <int>    <int>          <int>     <dbl>    <int>
    ##  1  2013     1     1     1525           1530        -5     1934
    ##  2  2013     1     1     1528           1459        29     2002
    ##  3  2013     1     1     1740           1745        -5     2158
    ##  4  2013     1     1     1807           1738        29     2251
    ##  5  2013     1     1     1939           1840        59       29
    ##  6  2013     1     1     1952           1930        22     2358
    ##  7  2013     1     1     2016           1930        46       NA
    ##  8  2013     1     1       NA           1630        NA       NA
    ##  9  2013     1     1       NA           1935        NA       NA
    ## 10  2013     1     1       NA           1500        NA       NA
    ## # ... with 336,766 more rows, and 12 more variables: sched_arr_time <int>,
    ## #   arr_delay <dbl>, carrier <chr>, flight <int>, tailnum <chr>,
    ## #   origin <chr>, dest <chr>, air_time <dbl>, distance <dbl>, hour <dbl>,
    ## #   minute <dbl>, time_hour <dttm>

1.  Sort flights to find the most delayed flights. Find the flights that left earliest.

``` r
arrange(flights, desc(dep_delay))
```

    ## # A tibble: 336,776 x 19
    ##     year month   day dep_time sched_dep_time dep_delay arr_time
    ##    <int> <int> <int>    <int>          <int>     <dbl>    <int>
    ##  1  2013     1     9      641            900      1301     1242
    ##  2  2013     6    15     1432           1935      1137     1607
    ##  3  2013     1    10     1121           1635      1126     1239
    ##  4  2013     9    20     1139           1845      1014     1457
    ##  5  2013     7    22      845           1600      1005     1044
    ##  6  2013     4    10     1100           1900       960     1342
    ##  7  2013     3    17     2321            810       911      135
    ##  8  2013     6    27      959           1900       899     1236
    ##  9  2013     7    22     2257            759       898      121
    ## 10  2013    12     5      756           1700       896     1058
    ## # ... with 336,766 more rows, and 12 more variables: sched_arr_time <int>,
    ## #   arr_delay <dbl>, carrier <chr>, flight <int>, tailnum <chr>,
    ## #   origin <chr>, dest <chr>, air_time <dbl>, distance <dbl>, hour <dbl>,
    ## #   minute <dbl>, time_hour <dttm>

``` r
arrange(flights, dep_delay)
```

    ## # A tibble: 336,776 x 19
    ##     year month   day dep_time sched_dep_time dep_delay arr_time
    ##    <int> <int> <int>    <int>          <int>     <dbl>    <int>
    ##  1  2013    12     7     2040           2123       -43       40
    ##  2  2013     2     3     2022           2055       -33     2240
    ##  3  2013    11    10     1408           1440       -32     1549
    ##  4  2013     1    11     1900           1930       -30     2233
    ##  5  2013     1    29     1703           1730       -27     1947
    ##  6  2013     8     9      729            755       -26     1002
    ##  7  2013    10    23     1907           1932       -25     2143
    ##  8  2013     3    30     2030           2055       -25     2213
    ##  9  2013     3     2     1431           1455       -24     1601
    ## 10  2013     5     5      934            958       -24     1225
    ## # ... with 336,766 more rows, and 12 more variables: sched_arr_time <int>,
    ## #   arr_delay <dbl>, carrier <chr>, flight <int>, tailnum <chr>,
    ## #   origin <chr>, dest <chr>, air_time <dbl>, distance <dbl>, hour <dbl>,
    ## #   minute <dbl>, time_hour <dttm>

1.  Sort flights to find the fastest flights.

``` r
arrange(flights, (arr_time - dep_time))
```

    ## # A tibble: 336,776 x 19
    ##     year month   day dep_time sched_dep_time dep_delay arr_time
    ##    <int> <int> <int>    <int>          <int>     <dbl>    <int>
    ##  1  2013     7    17     2400           2142       138       54
    ##  2  2013    12     9     2400           2250        70       59
    ##  3  2013     6    12     2338           2129       129       17
    ##  4  2013    12    29     2332           2155        97       14
    ##  5  2013    11     6     2335           2215        80       18
    ##  6  2013     2    25     2347           2145       122       30
    ##  7  2013     8    13     2351           2152       119       35
    ##  8  2013    10    11     2342           2030       192       27
    ##  9  2013     2    26     2356           2000       236       41
    ## 10  2013     1    24     2342           2159       103       28
    ## # ... with 336,766 more rows, and 12 more variables: sched_arr_time <int>,
    ## #   arr_delay <dbl>, carrier <chr>, flight <int>, tailnum <chr>,
    ## #   origin <chr>, dest <chr>, air_time <dbl>, distance <dbl>, hour <dbl>,
    ## #   minute <dbl>, time_hour <dttm>
…
